DATE;AVAILABLE_EFFORT
01.12.2016;3.071090047393365
02.12.2016;3.071090047393365
03.12.2016;3.071090047393365
04.12.2016;3.071090047393365
05.12.2016;3.071090047393365
06.12.2016;3.071090047393365
07.12.2016;3.071090047393365
08.12.2016;3.071090047393365
09.12.2016;3.071090047393365
10.12.2016;3.071090047393365
11.12.2016;3.071090047393365
12.12.2016;3.071090047393365
13.12.2016;3.071090047393365
14.12.2016;3.071090047393365
15.12.2016;3.071090047393365
16.12.2016;3.071090047393365
17.12.2016;3.071090047393365
18.12.2016;3.071090047393365
19.12.2016;3.071090047393365
20.12.2016;3.071090047393365
21.12.2016;3.071090047393365
22.12.2016;3.071090047393365
23.12.2016;3.071090047393365
24.12.2016;3.071090047393365
25.12.2016;3.071090047393365
26.12.2016;3.071090047393365
27.12.2016;3.071090047393365
28.12.2016;3.071090047393365
29.12.2016;3.071090047393365
30.12.2016;3.071090047393365
31.12.2016;3.071090047393365
01.01.2017;3.071090047393365
02.01.2017;3.071090047393365
03.01.2017;3.071090047393365
04.01.2017;3.071090047393365
05.01.2017;3.071090047393365
06.01.2017;3.071090047393365
07.01.2017;3.071090047393365
08.01.2017;3.071090047393365
09.01.2017;3.071090047393365
10.01.2017;3.071090047393365
11.01.2017;3.071090047393365
12.01.2017;3.071090047393365
13.01.2017;3.071090047393365
14.01.2017;3.071090047393365
15.01.2017;3.071090047393365
16.01.2017;3.071090047393365
17.01.2017;3.071090047393365
18.01.2017;3.071090047393365
19.01.2017;3.071090047393365
20.01.2017;3.071090047393365
21.01.2017;3.071090047393365
22.01.2017;3.071090047393365
23.01.2017;3.071090047393365
24.01.2017;3.071090047393365
25.01.2017;3.071090047393365
26.01.2017;3.071090047393365
27.01.2017;3.071090047393365
28.01.2017;3.071090047393365
29.01.2017;3.071090047393365
30.01.2017;3.071090047393365
31.01.2017;3.071090047393365
01.02.2017;3.071090047393365
02.02.2017;3.071090047393365
03.02.2017;3.071090047393365
04.02.2017;3.071090047393365
05.02.2017;3.071090047393365
06.02.2017;3.071090047393365
07.02.2017;3.071090047393365
08.02.2017;3.071090047393365
09.02.2017;3.071090047393365
10.02.2017;3.071090047393365
11.02.2017;3.071090047393365
12.02.2017;3.071090047393365
13.02.2017;3.071090047393365
14.02.2017;3.071090047393365
15.02.2017;3.071090047393365
16.02.2017;3.071090047393365
17.02.2017;3.071090047393365
18.02.2017;3.071090047393365
19.02.2017;3.071090047393365
20.02.2017;3.071090047393365
21.02.2017;3.071090047393365
22.02.2017;3.071090047393365
23.02.2017;3.071090047393365
24.02.2017;3.071090047393365
25.02.2017;3.071090047393365
26.02.2017;3.071090047393365
27.02.2017;3.071090047393365
28.02.2017;3.071090047393365
01.03.2017;3.071090047393365
02.03.2017;3.071090047393365
03.03.2017;3.071090047393365
04.03.2017;3.071090047393365
05.03.2017;3.071090047393365
06.03.2017;3.071090047393365
07.03.2017;3.071090047393365
08.03.2017;3.071090047393365
09.03.2017;3.071090047393365
10.03.2017;3.071090047393365
11.03.2017;3.071090047393365
12.03.2017;3.071090047393365
13.03.2017;3.071090047393365
14.03.2017;3.071090047393365
15.03.2017;3.071090047393365
16.03.2017;3.071090047393365
17.03.2017;3.071090047393365
18.03.2017;3.071090047393365
19.03.2017;3.071090047393365
20.03.2017;3.071090047393365
21.03.2017;3.071090047393365
22.03.2017;3.071090047393365
23.03.2017;3.071090047393365
24.03.2017;3.071090047393365
25.03.2017;3.071090047393365
26.03.2017;3.071090047393365
27.03.2017;3.071090047393365
28.03.2017;3.071090047393365
29.03.2017;3.071090047393365
30.03.2017;3.071090047393365
31.03.2017;3.071090047393365
01.04.2017;3.071090047393365
02.04.2017;3.071090047393365
03.04.2017;3.071090047393365
04.04.2017;3.071090047393365
05.04.2017;3.071090047393365
06.04.2017;3.071090047393365
07.04.2017;3.071090047393365
08.04.2017;3.071090047393365
09.04.2017;3.071090047393365
10.04.2017;3.071090047393365
11.04.2017;3.071090047393365
12.04.2017;3.071090047393365
13.04.2017;3.071090047393365
14.04.2017;3.071090047393365
15.04.2017;3.071090047393365
16.04.2017;3.071090047393365
17.04.2017;3.071090047393365
18.04.2017;3.071090047393365
19.04.2017;3.071090047393365
20.04.2017;3.071090047393365
21.04.2017;3.071090047393365
22.04.2017;3.071090047393365
23.04.2017;3.071090047393365
24.04.2017;3.071090047393365
25.04.2017;3.071090047393365
26.04.2017;3.071090047393365
27.04.2017;3.071090047393365
28.04.2017;3.071090047393365
29.04.2017;3.071090047393365
30.04.2017;3.071090047393365
01.05.2017;3.071090047393365
02.05.2017;3.071090047393365
03.05.2017;3.071090047393365
04.05.2017;3.071090047393365
05.05.2017;3.071090047393365
06.05.2017;3.071090047393365
07.05.2017;3.071090047393365
08.05.2017;3.071090047393365
09.05.2017;3.071090047393365
10.05.2017;3.071090047393365
11.05.2017;3.071090047393365
12.05.2017;3.071090047393365
13.05.2017;3.071090047393365
14.05.2017;3.071090047393365
15.05.2017;3.071090047393365
16.05.2017;3.071090047393365
17.05.2017;3.071090047393365
18.05.2017;3.071090047393365
19.05.2017;3.071090047393365
20.05.2017;3.071090047393365
21.05.2017;3.071090047393365
22.05.2017;3.071090047393365
23.05.2017;3.071090047393365
24.05.2017;3.071090047393365
25.05.2017;3.071090047393365
26.05.2017;3.071090047393365
27.05.2017;3.071090047393365
28.05.2017;3.071090047393365
29.05.2017;3.071090047393365
30.05.2017;3.071090047393365
31.05.2017;3.071090047393365
01.06.2017;3.071090047393365
02.06.2017;3.071090047393365
03.06.2017;3.071090047393365
04.06.2017;3.071090047393365
05.06.2017;3.071090047393365
06.06.2017;3.071090047393365
07.06.2017;3.071090047393365
08.06.2017;3.071090047393365
09.06.2017;3.071090047393365
10.06.2017;3.071090047393365
11.06.2017;3.071090047393365
12.06.2017;3.071090047393365
13.06.2017;3.071090047393365
14.06.2017;3.071090047393365
15.06.2017;3.071090047393365
16.06.2017;3.071090047393365
17.06.2017;3.071090047393365
18.06.2017;3.071090047393365
19.06.2017;3.071090047393365
20.06.2017;3.071090047393365
21.06.2017;3.071090047393365
22.06.2017;3.071090047393365
23.06.2017;3.071090047393365
24.06.2017;3.071090047393365
25.06.2017;3.071090047393365
26.06.2017;3.071090047393365
27.06.2017;3.071090047393365
28.06.2017;3.071090047393365
29.06.2017;3.071090047393365
30.06.2017;3.071090047393365
