ROL_Name;01.12.2016;01.01.2017;01.02.2017;01.03.2017;01.04.2017;01.05.2017;30.06.2017
Exploit;176;44;120;176;21;69;22
Testeur_IT;66;110;80;198;42;230;22
CP_IT;220;198;100;220;84;184;88
CP_Metier;66;220;200;176;21;161;110
Architecte;110;66;140;176;105;69;176
Tech_Lead;66;132;160;22;189;138;66
Dev;22;132;40;154;84;207;220
Recetteur_Fonctionnel;88;176;180;198;126;138;220
Resp_Domaine;154;110;160;176;63;207;132
Manager;176;154;40;198;21;92;110
Resp_Application;132;22;120;66;105;161;132
CP_BI;110;132;40;88;210;46;22
