ACT;ROLE;ACL;INITIAL_START_DATE;INITIAL_END_DATE;START_DATE;END_DATE;PRIORITY;DELAYED;ID
[Hors RM] BL-10900 / CLP INTER / Ajout pays dans CPF Europe;Exploit;PP ? VSR;29.12.2016;20.01.2017;29.12.2016;20.01.2017;2;false;0
[Hors RM] BL-10900 / CLP INTER / Ajout pays dans CPF Europe;Testeur_IT;UAT;01.12.2016;19.01.2017;01.12.2016;02.01.2017;2;false;1
[Hors RM] BL-10900 / CLP INTER / Ajout pays dans CPF Europe;CP_IT;Pilotage_projet;20.02.2017;22.03.2017;20.02.2017;22.03.2017;2;false;2
Anomalies PDA Inter;CP_Metier;CdC;18.03.2017;20.04.2017;18.03.2017;20.04.2017;2;false;3
Anomalies PDA Inter;Tech_Lead;Cadrage;19.03.2017;24.04.2017;19.03.2017;24.04.2017;2;false;4
Anomalies PDA Inter;Architecte;Cadrage;19.03.2017;24.04.2017;19.03.2017;24.04.2017;2;false;4
Anomalies PDA Inter;CP_IT;Cadrage;19.03.2017;24.04.2017;19.03.2017;24.04.2017;2;false;4
Anomalies PDA Inter;CP_Metier;Specs;19.04.2017;10.05.2017;26.04.2017;10.05.2017;2;false;5
Anomalies PDA Inter;Tech_Lead;Specs;19.04.2017;10.05.2017;26.04.2017;10.05.2017;2;false;5
Anomalies PDA Inter;Architecte;Specs;19.04.2017;10.05.2017;26.04.2017;10.05.2017;2;false;5
Anomalies PDA Inter;Exploit;Specs;19.04.2017;10.05.2017;26.04.2017;10.05.2017;2;false;5
Anomalies PDA Inter;CP_IT;Specs;19.04.2017;10.05.2017;26.04.2017;10.05.2017;2;false;5
Anomalies PDA Inter;Dev;Dev;19.04.2017;10.05.2017;26.04.2017;10.05.2017;2;false;6
Anomalies PDA Inter;Testeur_IT;Dev;19.04.2017;10.05.2017;26.04.2017;10.05.2017;2;false;6
Anomalies PDA Inter;Tech_Lead;Dev;19.04.2017;10.05.2017;26.04.2017;10.05.2017;2;false;6
Anomalies PDA Inter;CP_IT;Dev;19.04.2017;10.05.2017;26.04.2017;10.05.2017;2;false;6
Anomalies PDA Inter;CP_Metier;Strat?gie et Cahier de Recette;04.05.2017;04.07.2017;25.05.2017;04.07.2017;2;false;7
Anomalies PDA Inter;Recetteur_Fonctionnel;Strat?gie et Cahier de Recette;04.05.2017;04.07.2017;25.05.2017;04.07.2017;2;false;7
Appli Hybride France;CP_Metier;CdC;12.01.2017;17.02.2017;24.01.2017;17.02.2017;1;false;8
Appli Hybride France;Resp_Domaine;CdC;12.01.2017;17.02.2017;24.01.2017;17.02.2017;1;false;8
Appli Hybride France;Architecte;CdC;12.01.2017;17.02.2017;24.01.2017;17.02.2017;1;false;8
Appli Hybride France;Tech_Lead;Cadrage;05.01.2017;07.02.2017;05.01.2017;27.01.2017;1;false;9
Appli Hybride France;Architecte;Cadrage;05.01.2017;07.02.2017;05.01.2017;27.01.2017;1;false;9
Appli Hybride France;CP_IT;Cadrage;05.01.2017;07.02.2017;05.01.2017;27.01.2017;1;false;9
Appli Hybride France;CP_IT;Pilotage_projet;08.12.2016;16.01.2017;08.12.2016;16.01.2017;1;false;10
Appli Hybride France;Testeur_IT;Specs;31.01.2017;01.03.2017;31.01.2017;01.03.2017;1;false;11
Appli Hybride France;CP_Metier;Specs;31.01.2017;01.03.2017;31.01.2017;01.03.2017;1;false;11
Appli Hybride France;Tech_Lead;Specs;31.01.2017;01.03.2017;31.01.2017;01.03.2017;1;false;11
Appli Hybride France;Architecte;Specs;31.01.2017;01.03.2017;31.01.2017;01.03.2017;1;false;11
Appli Hybride France;Exploit;Specs;31.01.2017;01.03.2017;31.01.2017;01.03.2017;1;false;11
Appli Hybride France;CP_IT;Specs;31.01.2017;01.03.2017;31.01.2017;01.03.2017;1;false;11
Appli Hybride France;Dev;Dev;02.03.2017;10.05.2017;02.03.2017;10.05.2017;1;false;12
Appli Hybride France;Testeur_IT;Dev;02.03.2017;10.05.2017;02.03.2017;10.05.2017;1;false;12
Appli Hybride France;Tech_Lead;Dev;02.03.2017;10.05.2017;02.03.2017;10.05.2017;1;false;12
Appli Hybride France;CP_Metier;Strat?gie et Cahier de Recette;21.02.2017;02.05.2017;21.02.2017;02.05.2017;1;false;13
Appli Hybride France;Recetteur_Fonctionnel;Strat?gie et Cahier de Recette;21.02.2017;02.05.2017;21.02.2017;02.05.2017;1;false;13
Appli Hybride France;Dev;Int?gration;23.02.2017;11.05.2017;23.02.2017;11.05.2017;1;false;14
Appli Hybride France;Testeur_IT;Int?gration;23.02.2017;11.05.2017;23.02.2017;11.05.2017;1;false;14
Appli Hybride France;Tech_Lead;Int?gration;23.02.2017;11.05.2017;23.02.2017;11.05.2017;1;false;14
Arr?t Plate forme France;CP_Metier;CdC;15.05.2017;22.06.2017;15.05.2017;09.06.2017;1;false;15
Arr?t Plate forme France;Resp_Domaine;CdC;15.05.2017;22.06.2017;15.05.2017;09.06.2017;1;false;15
Arr?t Plate forme France;Architecte;CdC;15.05.2017;22.06.2017;15.05.2017;09.06.2017;1;false;15
Avisage 2017 RM2;Manager;Cadrage;06.01.2017;09.02.2017;06.01.2017;28.01.2017;1;false;16
Avisage 2017 RM2;Tech_Lead;Cadrage;06.01.2017;09.02.2017;06.01.2017;28.01.2017;1;false;16
Avisage 2017 RM2;CP_IT;Cadrage;06.01.2017;09.02.2017;06.01.2017;28.01.2017;1;false;16
Avisage 2017 RM2;Resp_Application;Cadrage;06.01.2017;09.02.2017;06.01.2017;28.01.2017;1;false;16
Avisage 2017 RM2;CP_Metier;CdC;10.01.2017;08.02.2017;20.01.2017;08.02.2017;1;false;17
Avisage 2017 RM2;Testeur_IT;Specs;01.02.2017;28.02.2017;01.02.2017;28.02.2017;1;false;18
Avisage 2017 RM2;CP_Metier;Specs;01.02.2017;28.02.2017;01.02.2017;28.02.2017;1;false;18
Avisage 2017 RM2;Tech_Lead;Specs;01.02.2017;28.02.2017;01.02.2017;28.02.2017;1;false;18
Avisage 2017 RM2;Architecte;Specs;01.02.2017;28.02.2017;01.02.2017;28.02.2017;1;false;18
Avisage 2017 RM2;Exploit;Specs;01.02.2017;28.02.2017;01.02.2017;28.02.2017;1;false;18
Avisage 2017 RM2;CP_IT;Specs;01.02.2017;28.02.2017;01.02.2017;28.02.2017;1;false;18
Avisage 2017 RM2;Testeur_IT;Strat?gie et Cahier de Recette;26.02.2017;03.05.2017;26.02.2017;03.05.2017;1;false;19
Avisage 2017 RM2;Recetteur_Fonctionnel;Strat?gie et Cahier de Recette;26.02.2017;03.05.2017;26.02.2017;03.05.2017;1;false;19
Avisage 2017 RM2;Dev;Dev;11.12.2016;30.06.2017;11.12.2016;30.06.2017;1;false;20
Avisage 2017 RM2;Testeur_IT;Dev;11.12.2016;30.06.2017;11.12.2016;30.06.2017;1;false;20
Avisage 2017 RM2;CP_IT;Dev;11.12.2016;30.06.2017;11.12.2016;30.06.2017;1;false;20
Avisage 2017 RM2;Manager;Pilotage_projet;21.02.2017;08.05.2017;21.02.2017;08.05.2017;1;false;21
Avisage 2017 RM2;CP_Metier;Pilotage_projet;21.02.2017;08.05.2017;21.02.2017;08.05.2017;1;false;21
Avisage 2017 RM2;Resp_Domaine;Pilotage_projet;21.02.2017;08.05.2017;21.02.2017;08.05.2017;1;false;21
Avisage 2017 RM2;CP_IT;Pilotage_projet;21.02.2017;08.05.2017;21.02.2017;08.05.2017;1;false;21
Avisage LOT 2017 RM3;CP_Metier;CdC;19.05.2017;11.06.2017;19.05.2017;03.06.2017;1;false;22
Avisage LOT 2017 RM3;Resp_Domaine;CdC;19.05.2017;11.06.2017;19.05.2017;03.06.2017;1;false;22
Avisage LOT 2017 RM3;Architecte;CdC;19.05.2017;11.06.2017;19.05.2017;03.06.2017;1;false;22
Avisage LOT 2017 RM3;CP_IT;Pilotage_projet;15.05.2017;22.06.2017;28.05.2017;22.06.2017;1;false;23
BI - PDA Stock;CP_BI;Pilotage_projet;29.03.2017;15.05.2017;14.04.2017;15.05.2017;9;false;24
BI - PDA Stock;CP_BI;Cadrage;07.05.2017;13.06.2017;07.05.2017;13.06.2017;9;false;25
BI - PDA Stock;CP_BI;Modelisation;01.05.2017;29.05.2017;01.05.2017;29.05.2017;9;false;26
BI - Refonte archi serveur;CP_BI;Pilotage_projet;04.09.2017;19.09.2017;;;9;true;27
BI - Refonte archi serveur;CP_BI;Cadrage;12.09.2017;27.09.2017;;;9;true;28
BI - Refonte archi serveur;CP_BI;Dev;12.09.2017;24.09.2017;;;9;true;29
BI - Refonte archi serveur;CP_BI;Recette;23.09.2017;26.09.2017;;;9;true;30
BI - Refonte archi serveur;CP_BI;Documentation;24.09.2017;29.09.2017;;;9;true;31
BI - Refonte archi serveur;CP_BI;Production;04.05.2017;13.06.2017;04.05.2017;13.06.2017;9;true;32
BI - Ticket chronopost;CP_BI;Pilotage_projet;24.12.2016;10.01.2017;30.12.2016;10.01.2017;9;false;33
BI - Ticket chronopost;CP_BI;Cadrage;05.01.2017;18.01.2017;10.01.2017;18.01.2017;9;false;34
BI - Ticket chronopost;CP_BI;Modelisation;05.01.2017;20.01.2017;05.01.2017;20.01.2017;9;false;35
BI - Ticket chronopost;CP_BI;Dev;14.01.2017;27.01.2017;14.01.2017;27.01.2017;9;false;36
BI - Ticket chronopost;CP_BI;Recette;20.01.2017;29.01.2017;20.01.2017;26.01.2017;9;false;37
BI - Ticket chronopost;CP_BI;Documentation;19.01.2017;03.02.2017;19.01.2017;29.01.2017;9;false;38
BI - Ticket chronopost;CP_BI;Production;23.01.2017;29.01.2017;23.01.2017;27.01.2017;9;false;39
BI - Ticket chronopost;CP_BI;Formation;22.02.2017;06.04.2017;22.02.2017;22.03.2017;9;false;40
BI Avisage-lot2;CP_BI;Pilotage_projet;12.06.2017;27.06.2017;12.06.2017;22.06.2017;9;true;41
BI Avisage-lot2;CP_BI;Cadrage;17.06.2017;07.07.2017;24.06.2017;07.07.2017;9;true;42
BI Avisage-lot2;CP_BI;Modelisation;27.06.2017;11.07.2017;;;9;true;43
BI Avisage-lot2;CP_BI;Dev;04.07.2017;21.07.2017;;;9;true;44
BI Avisage-lot2;CP_BI;Recette;08.07.2017;16.07.2017;;;9;true;45
BI Avisage-lot2;CP_BI;Documentation;10.07.2017;19.07.2017;;;9;true;46
BI Avisage-lot2;CP_BI;Production;12.07.2017;24.07.2017;;;9;true;47
BI Avisage-lot2;CP_BI;Formation;29.06.2017;20.07.2017;;;9;true;48
BI Calendrier Plateform;CP_BI;Pilotage_projet;08.07.2017;17.07.2017;;;9;true;49
BI Calendrier Plateform;CP_BI;Cadrage;08.07.2017;24.07.2017;;;9;true;50
BI Calendrier Plateform;CP_BI;Dev;11.07.2017;22.07.2017;;;9;true;51
BI Calendrier Plateform;CP_BI;Recette;15.07.2017;22.07.2017;;;9;true;52
BI Calendrier Plateform;CP_BI;Documentation;11.07.2017;29.07.2017;;;9;true;53
BI Calendrier Plateform;CP_BI;Production;15.07.2017;25.07.2017;;;9;true;54
BI Calendrier Plateform;CP_BI;Formation;04.06.2017;07.07.2017;04.06.2017;26.06.2017;9;true;55
BI Colis VO;CP_BI;D?veloppement appli;15.02.2017;18.03.2017;15.02.2017;18.03.2017;9;false;56
BI Colis VO;CP_BI;Analyse;02.01.2017;01.03.2017;02.01.2017;09.02.2017;9;false;57
BI D?ploiement QlikSense - LOT1;CP_BI;Pilotage_projet;23.06.2017;15.07.2017;;;9;true;58
BI D?ploiement QlikSense - LOT1;CP_BI;r?ponse architecture;02.06.2017;03.07.2017;02.06.2017;22.06.2017;9;true;59
BI D?ploiement QlikSense - LOT1;CP_BI;Cadrage;25.05.2017;31.07.2017;25.05.2017;08.07.2017;9;true;60
BI D?ploiement QlikSense - LOT1;CP_BI;Deploiement;11.07.2017;29.07.2017;;;9;true;61
BI D?ploiement QlikSense - LOT1;CP_BI;Formation / accompagnement;17.07.2017;23.07.2017;;;9;true;62
BI D?ploiement QlikSense - LOT1;CP_BI;Documentation;29.08.2017;22.11.2017;;;9;true;63
BI Finance Lot2;CP_BI;Pilotage_projet;02.04.2017;06.05.2017;02.04.2017;24.04.2017;9;false;64
BI Finance Lot2;CP_BI;Cadrage;29.04.2017;15.06.2017;29.04.2017;15.06.2017;9;false;65
BI Finance Lot2;CP_BI;Dev Application;10.01.2017;27.01.2017;10.01.2017;27.01.2017;9;false;66
BI Inventaire - lot 1;CP_BI;Cadrage;25.06.2017;16.07.2017;25.06.2017;09.07.2017;9;true;67
BI Inventaire - lot 1;CP_BI;Modelisation;20.06.2017;31.07.2017;20.06.2017;17.07.2017;9;true;68
BI Inventaire - lot 1;CP_BI;Pilotage_projet;03.07.2017;27.07.2017;;;9;true;69
BI Inventaire - lot 1;CP_BI;Dev;14.07.2017;02.08.2017;;;9;true;70
BI Inventaire - lot 1;CP_BI;Recette;22.07.2017;25.07.2017;;;9;true;71
BI Inventaire - lot 1;CP_BI;Documentation;21.07.2017;28.07.2017;;;9;true;72
BI Inventaire - lot 1;CP_BI;Production;22.07.2017;03.08.2017;;;9;true;73
BI Inventaire - lot 1;CP_BI;Formation;14.09.2017;08.12.2017;;;9;true;74
BI Macro QS - Lot1;CP_BI;Pilotage_projet;24.03.2017;04.05.2017;07.04.2017;04.05.2017;9;false;75
BI Macro QS - Lot1;CP_BI;Cadrage;24.03.2017;26.06.2017;24.03.2017;25.05.2017;9;false;76
BI Macro QS - Lot1;CP_BI;Modelisation;13.05.2017;10.06.2017;23.05.2017;10.06.2017;9;false;77
BI Macro QS - Lot1;CP_BI;Dev;24.02.2017;24.06.2017;24.02.2017;24.06.2017;9;false;78
BI Monthly Report;CP_BI;Pilotage_projet;19.02.2017;24.03.2017;19.02.2017;24.03.2017;9;false;79
BI Monthly Report;CP_BI;Cadrage;26.03.2017;22.04.2017;26.03.2017;13.04.2017;9;false;80
BI Monthly Report;CP_BI;Modelisation;19.03.2017;22.04.2017;19.03.2017;22.04.2017;9;false;81
BI Monthly Report;CP_BI;Dev;18.12.2016;02.01.2017;23.12.2016;02.01.2017;9;false;82
BI PDA -Lot 1 - Gest Mat;CP_BI;Pilotage_projet;26.12.2016;08.01.2017;26.12.2016;08.01.2017;1;false;83
BI PDA -Lot 1 - Gest Mat;CP_BI;Formation;21.12.2016;04.01.2017;21.12.2016;30.12.2016;1;false;84
BI PUDO Devices;CP_BI;Recette;31.12.2016;11.01.2017;04.01.2017;11.01.2017;9;false;85
BI PUDO Devices;CP_BI;Documentation;03.01.2017;15.01.2017;07.01.2017;15.01.2017;9;false;86
BI PUDO Devices;CP_BI;Production;10.12.2016;07.02.2017;10.12.2016;07.02.2017;9;false;87
BI Real Time - Archi;CP_BI;Cadrage;11.08.2017;04.10.2017;;;9;true;88
BI Real Time - Archi;CP_BI;Dev;01.10.2017;11.10.2017;;;9;true;89
BI Real Time - Archi;CP_BI;Recette;09.10.2017;20.10.2017;;;9;true;90
BI Real Time - Archi;CP_BI;Documentation;27.06.2017;30.10.2017;;;9;true;91
BI Real Time - Archi;CP_BI;Pilotage_projet;17.10.2017;30.10.2017;;;9;true;92
BI Real Time - Archi;CP_BI;Formation;31.07.2017;27.11.2017;;;9;true;93
BI Real Time - Lot1 - Monitoring;CP_BI;Pilotage_projet;14.07.2017;11.09.2017;;;9;true;94
BI Real Time - Lot1 - Monitoring;CP_BI;Formation;12.05.2017;27.06.2017;12.05.2017;11.06.2017;9;true;95
BI Real Time - Lot1 - Monitoring;CP_BI;Cadrage;14.06.2017;07.09.2017;13.07.2017;07.09.2017;9;true;96
BI Real Time - Lot1 - Monitoring;CP_BI;Installation;19.07.2017;28.10.2017;;;9;true;97
BI Real Time - Lot1 - Monitoring;CP_BI;Dev;02.09.2017;22.09.2017;;;9;true;98
BI Real Time - Lot1 - Monitoring;CP_BI;Recette;11.06.2017;14.09.2017;13.07.2017;14.09.2017;9;true;99
BI Real Time - Lot1 - Monitoring;CP_BI;Data Viz;13.07.2017;28.10.2017;;;9;true;100
BI Supervision_Projets;CP_BI;Pilotage_projet;13.06.2017;29.06.2017;13.06.2017;29.06.2017;9;true;101
BI Supervision_Projets;CP_BI;Cadrage;16.06.2017;02.07.2017;22.06.2017;02.07.2017;9;true;102
BI Supervision_Projets;CP_BI;Modelisation;25.06.2017;09.07.2017;;;9;true;103
BI Supervision_Projets;CP_BI;Dev;07.07.2017;15.07.2017;;;9;true;104
BI Supervision_Projets;CP_BI;Recette;12.07.2017;21.07.2017;;;9;true;105
BI Supervision_Projets;CP_BI;Documentation;14.07.2017;25.07.2017;;;9;true;106
BI Supervision_Projets;CP_BI;Production;08.07.2017;26.07.2017;;;9;true;107
BI Supervision_Projets;CP_BI;Formation;05.06.2017;23.06.2017;05.06.2017;23.06.2017;9;true;108
BI TATOOLS - DATA PUDO Properties;CP_BI;Dev;15.06.2017;12.07.2017;24.06.2017;12.07.2017;9;true;109
BI TATOOLS - DATA PUDO Properties;CP_BI;Pilotage_projet;27.06.2017;05.07.2017;;;9;true;110
BI TATOOLS - DATA PUDO Properties;CP_BI;Recette;18.05.2017;18.06.2017;18.05.2017;07.06.2017;9;true;111
BI TATOOLS - DATA reroutage Mesure code service;CP_BI;Pilotage_projet;08.07.2017;15.07.2017;;;9;true;112
BI TATOOLS - DATA reroutage Mesure code service;CP_BI;Modelisation;04.07.2017;29.07.2017;;;9;true;113
BI TATOOLS - DATA reroutage Mesure code service;CP_BI;Dev;11.07.2017;25.07.2017;;;9;true;114
BI TATOOLS - DATA reroutage Mesure code service;CP_BI;Recette;21.07.2017;05.08.2017;;;9;true;115
BI TATOOLS - DATA reroutage Mesure code service;CP_BI;Documentation;27.06.2017;08.07.2017;;;9;true;116
BI TATOOLS - DATA reroutage Mesure code service;CP_BI;Cadrage;28.07.2017;31.07.2017;;;9;true;117
BI TATOOLS - DATA reroutage Mesure code service;CP_BI;Formation;10.10.2017;31.10.2017;;;9;true;118
BL-10374-Pickup.fr : Fiche PUDO;Testeur_IT;Specs;07.04.2017;28.04.2017;14.04.2017;28.04.2017;1;false;119
BL-10374-Pickup.fr : Fiche PUDO;CP_Metier;Specs;07.04.2017;28.04.2017;14.04.2017;28.04.2017;1;false;119
BL-10374-Pickup.fr : Fiche PUDO;Tech_Lead;Specs;07.04.2017;28.04.2017;14.04.2017;28.04.2017;1;false;119
BL-10374-Pickup.fr : Fiche PUDO;Architecte;Specs;07.04.2017;28.04.2017;14.04.2017;28.04.2017;1;false;119
BL-10374-Pickup.fr : Fiche PUDO;Exploit;Specs;07.04.2017;28.04.2017;14.04.2017;28.04.2017;1;false;119
BL-10374-Pickup.fr : Fiche PUDO;CP_IT;Specs;07.04.2017;28.04.2017;14.04.2017;28.04.2017;1;false;119
BL-10374-Pickup.fr : Fiche PUDO;CP_Metier;CdC;15.04.2017;11.05.2017;15.04.2017;02.05.2017;1;false;120
BL-10374-Pickup.fr : Fiche PUDO;Resp_Domaine;CdC;15.04.2017;11.05.2017;15.04.2017;02.05.2017;1;false;120
BL-10374-Pickup.fr : Fiche PUDO;Architecte;CdC;15.04.2017;11.05.2017;15.04.2017;02.05.2017;1;false;120
BL-10374-Pickup.fr : Fiche PUDO;CP_IT;Pilotage_projet;10.04.2017;25.04.2017;15.04.2017;25.04.2017;1;false;121
BL-10374-Pickup.fr : Fiche PUDO;Dev;Dev;11.04.2017;06.05.2017;11.04.2017;27.04.2017;1;false;122
BL-10374-Pickup.fr : Fiche PUDO;Testeur_IT;Dev;11.04.2017;06.05.2017;11.04.2017;27.04.2017;1;false;122
BL-10374-Pickup.fr : Fiche PUDO;Tech_Lead;Dev;11.04.2017;06.05.2017;11.04.2017;27.04.2017;1;false;122
BL-10374-Pickup.fr : Fiche PUDO;CP_Metier;Strat?gie et Cahier de Recette;30.04.2017;02.06.2017;30.04.2017;02.06.2017;1;false;123
