DATE;AVAILABLE_EFFORT
01.12.2016;0.0
02.12.2016;0.0
03.12.2016;0.0
04.12.2016;0.0
05.12.2016;0.0
06.12.2016;0.0
07.12.2016;0.0
08.12.2016;0.0
09.12.2016;0.0
10.12.2016;0.10663217600000019
11.12.2016;0.10663217600000019
12.12.2016;0.10663217600000019
13.12.2016;0.10663217600000019
14.12.2016;0.10663217600000019
15.12.2016;0.10663217600000019
16.12.2016;0.10663217600000019
17.12.2016;0.10663217600000019
18.12.2016;0.10663217600000019
19.12.2016;0.10663217600000019
20.12.2016;0.10663217600000019
21.12.2016;0.6112849960000002
22.12.2016;0.6112849960000002
23.12.2016;0.8632395689000001
24.12.2016;0.8632395689000001
25.12.2016;0.8632395689000001
26.12.2016;1.525180442976923
27.12.2016;1.525180442976923
28.12.2016;1.525180442976923
29.12.2016;1.525180442976923
30.12.2016;1.8258376262496503
31.12.2016;1.32118480624965
01.01.2017;1.32118480624965
02.01.2017;1.3888785424075452
03.01.2017;1.136923969507545
04.01.2017;1.1874937479361165
05.01.2017;1.8149873987361167
06.01.2017;1.8149873987361167
07.01.2017;2.105532423361117
08.01.2017;2.105532423361117
09.01.2017;1.4435915492841935
10.01.2017;2.318821481762135
11.01.2017;2.0181642984894075
12.01.2017;1.9675945200608362
13.01.2017;1.9675945200608362
14.01.2017;2.452711517060836
15.01.2017;2.452711517060836
16.01.2017;2.162166492435836
17.01.2017;2.162166492435836
18.01.2017;2.162166492435836
19.01.2017;1.9790608150108362
20.01.2017;2.102841411677503
21.01.2017;1.4753477608775032
22.01.2017;1.4753477608775032
23.01.2017;1.5321341723775028
24.01.2017;1.5321341723775028
25.01.2017;1.5321341723775028
26.01.2017;1.5321341723775028
27.01.2017;1.408353575710836
28.01.2017;0.5383968738578946
29.01.2017;0.5383968738578946
30.01.2017;0.1743259121578955
31.01.2017;0.1743259121578955
01.02.2017;0.1743259121578955
02.02.2017;0.1743259121578955
03.02.2017;0.1743259121578955
04.02.2017;0.1743259121578946
05.02.2017;0.1743259121578955
06.02.2017;0.17432591215789506
07.02.2017;0.17432591215789506
08.02.2017;0.06769373615789531
09.02.2017;0.06769373615789531
10.02.2017;4.440892098500626E-16
11.02.2017;4.440892098500626E-16
12.02.2017;4.440892098500626E-16
13.02.2017;8.881784197001252E-16
14.02.2017;8.881784197001252E-16
15.02.2017;0.2648252467419363
16.02.2017;0.2648252467419363
17.02.2017;0.2648252467419354
18.02.2017;0.2648252467419354
19.02.2017;0.4906593720449659
20.02.2017;0.4906593720449659
21.02.2017;0.490659372044965
22.02.2017;0.5151669854378222
23.02.2017;0.5151669854378222
24.02.2017;0.5978660578211552
25.02.2017;0.5978660578211552
26.02.2017;0.5978660578211552
27.02.2017;0.5978660578211552
28.02.2017;0.5978660578211561
01.03.2017;0.5978660578211552
02.03.2017;0.5978660578211561
03.03.2017;0.5978660578211561
04.03.2017;0.5978660578211561
05.03.2017;0.5978660578211561
06.03.2017;0.5978660578211561
07.03.2017;0.5978660578211561
08.03.2017;0.5978660578211561
09.03.2017;0.5978660578211561
10.03.2017;0.5978660578211561
11.03.2017;0.5978660578211561
12.03.2017;0.5978660578211561
13.03.2017;0.5978660578211556
14.03.2017;0.5978660578211556
15.03.2017;0.5978660578211556
16.03.2017;0.5978660578211556
17.03.2017;0.5978660578211556
18.03.2017;0.5978660578211561
19.03.2017;0.7287301189321624
20.03.2017;0.7287301189321624
21.03.2017;0.7287301189321633
22.03.2017;0.7287301189321624
23.03.2017;0.7042225055393052
24.03.2017;0.8960055280554338
25.03.2017;0.6701714027524033
26.03.2017;0.810292778307959
27.03.2017;0.8102927783079594
28.03.2017;0.810292778307959
29.03.2017;0.810292778307959
30.03.2017;0.810292778307959
31.03.2017;0.810292778307959
01.04.2017;0.810292778307959
02.04.2017;1.1139890402170498
03.04.2017;1.1139890402170498
04.04.2017;1.1139890402170498
05.04.2017;1.1139890402170498
06.04.2017;1.1139890402170498
07.04.2017;1.7883234615503836
08.04.2017;1.7883234615503836
09.04.2017;1.7883234615503836
10.04.2017;1.7883234615503836
11.04.2017;1.7883234615503836
12.04.2017;1.7883234615503836
13.04.2017;1.7883234615503836
14.04.2017;1.8596094075432152
15.04.2017;1.8596094075432152
16.04.2017;1.8596094075432152
17.04.2017;1.8596094075432152
18.04.2017;1.8596094075432148
19.04.2017;1.8596094075432148
20.04.2017;1.8596094075432148
21.04.2017;1.8596094075432148
22.04.2017;1.8596094075432148
23.04.2017;1.4639200996902735
24.04.2017;1.4639200996902744
25.04.2017;1.1602238377811835
26.04.2017;1.1602238377811835
27.04.2017;1.1602238377811835
28.04.2017;1.1602238377811827
29.04.2017;1.189475132057779
30.04.2017;1.189475132057779
01.05.2017;1.199837519200636
02.05.2017;1.199837519200636
03.05.2017;1.199837519200636
04.05.2017;1.4390086121006365
05.05.2017;0.7646741907673027
06.05.2017;0.7646741907673027
07.05.2017;0.8993854137673023
08.05.2017;0.8993854137673023
09.05.2017;0.8993854137673023
10.05.2017;0.8993854137673023
11.05.2017;0.8993854137673023
12.05.2017;0.9898970214339688
13.05.2017;0.9898970214339693
14.05.2017;0.9898970214339693
15.05.2017;0.9898970214339693
16.05.2017;0.7784896998855815
17.05.2017;0.7784896998855815
18.05.2017;0.9885893834355826
19.05.2017;0.9885893834355834
20.05.2017;0.9885893834355834
21.05.2017;0.9885893834355834
22.05.2017;0.9885893834355834
23.05.2017;1.4326307198244714
24.05.2017;1.4326307198244714
25.05.2017;1.7935980394835622
26.05.2017;1.6018150169674334
27.05.2017;1.6018150169674334
28.05.2017;1.6018150169674334
29.05.2017;1.601815016967433
30.05.2017;1.591452629824576
31.05.2017;1.591452629824576
01.06.2017;1.5914526298245764
02.06.2017;1.8953045353745763
03.06.2017;1.8953045353745763
04.06.2017;2.274035408692758
05.06.2017;2.415751212303869
06.06.2017;2.415751212303869
07.06.2017;2.415751212303869
08.06.2017;2.2056515287538687
09.06.2017;2.205651528753869
10.06.2017;2.205651528753869
11.06.2017;1.7616101923649803
12.06.2017;2.3903695764983137
13.06.2017;2.486341677748314
14.06.2017;2.1124593618483134
15.06.2017;2.1124593618483134
16.06.2017;2.083208067571717
17.06.2017;2.083208067571717
18.06.2017;2.083208067571717
19.06.2017;2.0832080675717175
20.06.2017;2.1032778524235693
21.06.2017;2.1032778524235693
22.06.2017;2.2803840474235693
23.06.2017;1.2572611500735693
24.06.2017;2.241488842475279
25.06.2017;2.259088584663373
26.06.2017;2.259088584663373
27.06.2017;1.8803577113451908
28.06.2017;1.8803577113451908
29.06.2017;1.8803577113451908
30.06.2017;1.7843856100951905
