DATE;AVAILABLE_EFFORT
01.12.2016;0.0
02.12.2016;0.0
03.12.2016;0.0
04.12.2016;0.0
05.12.2016;0.0
06.12.2016;0.0
07.12.2016;0.0
08.12.2016;0.0
09.12.2016;0.0
10.12.2016;0.0
11.12.2016;0.0
12.12.2016;0.0
13.12.2016;0.0
14.12.2016;0.0
15.12.2016;0.0
16.12.2016;0.0
17.12.2016;0.0
18.12.2016;0.0
19.12.2016;0.0
20.12.2016;0.0
21.12.2016;0.0
22.12.2016;0.0
23.12.2016;0.0
24.12.2016;0.0
25.12.2016;0.0
26.12.2016;0.0
27.12.2016;0.0
28.12.2016;0.0
29.12.2016;0.0
30.12.2016;0.0
31.12.2016;0.0
01.01.2017;0.0
02.01.2017;0.0
03.01.2017;0.0
04.01.2017;0.0
05.01.2017;0.0
06.01.2017;0.35414429818181814
07.01.2017;0.35414429818181814
08.01.2017;0.35414429818181814
09.01.2017;0.35414429818181814
10.01.2017;0.35414429818181814
11.01.2017;0.35414429818181814
12.01.2017;0.35414429818181814
13.01.2017;0.35414429818181814
14.01.2017;0.35414429818181814
15.01.2017;0.35414429818181814
16.01.2017;0.35414429818181814
17.01.2017;0.35414429818181814
18.01.2017;0.35414429818181814
19.01.2017;0.35414429818181814
20.01.2017;0.35414429818181814
21.01.2017;0.35414429818181814
22.01.2017;0.35414429818181814
23.01.2017;0.35414429818181814
24.01.2017;0.35414429818181814
25.01.2017;0.35414429818181814
26.01.2017;0.35414429818181814
27.01.2017;0.35414429818181814
28.01.2017;0.35414429818181814
29.01.2017;0.0
30.01.2017;0.0
31.01.2017;0.0
01.02.2017;0.0
02.02.2017;0.0
03.02.2017;0.0
04.02.2017;0.0
05.02.2017;0.0
06.02.2017;0.0
07.02.2017;0.0
08.02.2017;0.0
09.02.2017;0.0
10.02.2017;0.0
11.02.2017;0.0
12.02.2017;0.0
13.02.2017;0.0
14.02.2017;0.0
15.02.2017;0.0
16.02.2017;0.0
17.02.2017;0.0
18.02.2017;0.0
19.02.2017;0.0
20.02.2017;0.0
21.02.2017;0.0
22.02.2017;0.0
23.02.2017;0.0
24.02.2017;0.0
25.02.2017;0.0
26.02.2017;0.0
27.02.2017;0.0
28.02.2017;0.0
01.03.2017;0.0
02.03.2017;0.0
03.03.2017;0.0
04.03.2017;0.0
05.03.2017;0.0
06.03.2017;0.0
07.03.2017;0.0
08.03.2017;0.0
09.03.2017;0.0
10.03.2017;0.0
11.03.2017;0.0
12.03.2017;0.0
13.03.2017;0.0
14.03.2017;0.0
15.03.2017;0.0
16.03.2017;0.0
17.03.2017;0.0
18.03.2017;0.0
19.03.2017;0.0
20.03.2017;0.0
21.03.2017;0.0
22.03.2017;0.0
23.03.2017;0.0
24.03.2017;0.0
25.03.2017;0.0
26.03.2017;0.0
27.03.2017;0.0
28.03.2017;0.0
29.03.2017;0.0
30.03.2017;0.0
31.03.2017;0.0
01.04.2017;0.0
02.04.2017;0.0
03.04.2017;0.0
04.04.2017;0.0
05.04.2017;0.0
06.04.2017;0.0
07.04.2017;0.0
08.04.2017;0.0
09.04.2017;0.0
10.04.2017;0.0
11.04.2017;0.0
12.04.2017;0.0
13.04.2017;0.0
14.04.2017;0.0
15.04.2017;0.0
16.04.2017;0.0
17.04.2017;0.0
18.04.2017;0.0
19.04.2017;0.0
20.04.2017;0.0
21.04.2017;0.0
22.04.2017;0.0
23.04.2017;0.0
24.04.2017;0.0
25.04.2017;0.0
26.04.2017;0.0
27.04.2017;0.0
28.04.2017;0.0
29.04.2017;0.0
30.04.2017;0.0
01.05.2017;0.0
02.05.2017;0.0
03.05.2017;0.0
04.05.2017;0.0
05.05.2017;0.0
06.05.2017;0.0
07.05.2017;0.0
08.05.2017;0.0
09.05.2017;0.0
10.05.2017;0.0
11.05.2017;0.0
12.05.2017;0.0
13.05.2017;0.0
14.05.2017;0.0
15.05.2017;0.0
16.05.2017;0.0
17.05.2017;0.0
18.05.2017;0.0
19.05.2017;0.0
20.05.2017;0.0
21.05.2017;0.0
22.05.2017;0.0
23.05.2017;0.0
24.05.2017;0.0
25.05.2017;0.0
26.05.2017;0.0
27.05.2017;0.0
28.05.2017;0.0
29.05.2017;0.0
30.05.2017;0.0
31.05.2017;0.0
01.06.2017;0.0
02.06.2017;0.0
03.06.2017;0.0
04.06.2017;0.0
05.06.2017;0.0
06.06.2017;0.0
07.06.2017;0.0
08.06.2017;0.0
09.06.2017;0.0
10.06.2017;0.0
11.06.2017;0.0
12.06.2017;0.0
13.06.2017;0.0
14.06.2017;0.0
15.06.2017;0.0
16.06.2017;0.0
17.06.2017;0.0
18.06.2017;0.0
19.06.2017;0.0
20.06.2017;0.0
21.06.2017;0.0
22.06.2017;0.0
23.06.2017;0.0
24.06.2017;0.0
25.06.2017;0.0
26.06.2017;0.0
27.06.2017;0.0
28.06.2017;0.0
29.06.2017;0.0
30.06.2017;0.0
