DATE;AVAILABLE_EFFORT
01.12.2016;0.1486777118437499
02.12.2016;0.1486777118437499
03.12.2016;0.1486777118437499
04.12.2016;0.1486777118437499
05.12.2016;0.1486777118437499
06.12.2016;0.1486777118437499
07.12.2016;0.1486777118437499
08.12.2016;0.1486777118437499
09.12.2016;0.1486777118437499
10.12.2016;0.1486777118437499
11.12.2016;0.15933938898802857
12.12.2016;0.15933938898802857
13.12.2016;0.15933938898802857
14.12.2016;0.15933938898802857
15.12.2016;0.15933938898802857
16.12.2016;0.15933938898802857
17.12.2016;0.15933938898802857
18.12.2016;0.15933938898802857
19.12.2016;0.15933938898802857
20.12.2016;0.15933938898802857
21.12.2016;0.15933938898802857
22.12.2016;0.15933938898802857
23.12.2016;0.15933938898802857
24.12.2016;0.15933938898802857
25.12.2016;0.15933938898802857
26.12.2016;0.15933938898802857
27.12.2016;0.15933938898802857
28.12.2016;0.15933938898802857
29.12.2016;0.15933938898802857
30.12.2016;0.15933938898802857
31.12.2016;0.15933938898802857
01.01.2017;0.15933938898802857
02.01.2017;0.15933938898802857
03.01.2017;0.01066167714427868
04.01.2017;0.01066167714427868
05.01.2017;0.01066167714427868
06.01.2017;0.01066167714427868
07.01.2017;0.01066167714427868
08.01.2017;0.01066167714427868
09.01.2017;0.01066167714427868
10.01.2017;0.01066167714427868
11.01.2017;0.01066167714427868
12.01.2017;0.01066167714427868
13.01.2017;0.01066167714427868
14.01.2017;0.01066167714427868
15.01.2017;0.01066167714427868
16.01.2017;0.01066167714427868
17.01.2017;0.01066167714427868
18.01.2017;0.01066167714427868
19.01.2017;0.01066167714427868
20.01.2017;0.01066167714427868
21.01.2017;0.01066167714427868
22.01.2017;0.01066167714427868
23.01.2017;0.01066167714427868
24.01.2017;0.01066167714427868
25.01.2017;0.01066167714427868
26.01.2017;0.01066167714427868
27.01.2017;0.01066167714427868
28.01.2017;0.01066167714427868
29.01.2017;0.01066167714427868
30.01.2017;0.01066167714427868
31.01.2017;0.1473402282132441
01.02.2017;0.16414422828731823
02.02.2017;0.16414422828731823
03.02.2017;0.16414422828731823
04.02.2017;0.16414422828731823
05.02.2017;0.16414422828731823
06.02.2017;0.16414422828731823
07.02.2017;0.16414422828731823
08.02.2017;0.16414422828731823
09.02.2017;0.16414422828731823
10.02.2017;0.16414422828731823
11.02.2017;0.16414422828731823
12.02.2017;0.16414422828731823
13.02.2017;0.16414422828731823
14.02.2017;0.16414422828731823
15.02.2017;0.16414422828731823
16.02.2017;0.16414422828731823
17.02.2017;0.16414422828731823
18.02.2017;0.16414422828731823
19.02.2017;0.16414422828731823
20.02.2017;0.16414422828731823
21.02.2017;0.16414422828731823
22.02.2017;0.16414422828731823
23.02.2017;0.24789681005355213
24.02.2017;0.24789681005355213
25.02.2017;0.24789681005355213
26.02.2017;0.39528750644749167
27.02.2017;0.39528750644749167
28.02.2017;0.39528750644749167
01.03.2017;0.37848350637341754
02.03.2017;0.24658931815952467
03.03.2017;0.24658931815952467
04.03.2017;0.24658931815952467
05.03.2017;0.24658931815952467
06.03.2017;0.24658931815952467
07.03.2017;0.24658931815952467
08.03.2017;0.24658931815952467
09.03.2017;0.24658931815952467
10.03.2017;0.24658931815952467
11.03.2017;0.24658931815952467
12.03.2017;0.24658931815952467
13.03.2017;0.24658931815952467
14.03.2017;0.24658931815952467
15.03.2017;0.24658931815952467
16.03.2017;0.24658931815952467
17.03.2017;0.24658931815952467
18.03.2017;0.24658931815952467
19.03.2017;0.24658931815952467
20.03.2017;0.24658931815952467
21.03.2017;0.24658931815952467
22.03.2017;0.24658931815952467
23.03.2017;0.24658931815952467
24.03.2017;0.24658931815952467
25.03.2017;0.24658931815952467
26.03.2017;0.24658931815952467
27.03.2017;0.24658931815952467
28.03.2017;0.24658931815952467
29.03.2017;0.24658931815952467
30.03.2017;0.24658931815952467
31.03.2017;0.24658931815952467
01.04.2017;0.24658931815952467
02.04.2017;0.24658931815952467
03.04.2017;0.24658931815952467
04.04.2017;0.24658931815952467
05.04.2017;0.24658931815952467
06.04.2017;0.24658931815952467
07.04.2017;0.24658931815952467
08.04.2017;0.24658931815952467
09.04.2017;0.24658931815952467
10.04.2017;0.24658931815952467
11.04.2017;0.5512806068470248
12.04.2017;0.5512806068470248
13.04.2017;0.5512806068470248
14.04.2017;0.9162160827041679
15.04.2017;0.9162160827041679
16.04.2017;0.9162160827041679
17.04.2017;0.9162160827041679
18.04.2017;0.9162160827041679
19.04.2017;0.9162160827041679
20.04.2017;0.9162160827041679
21.04.2017;0.9162160827041679
22.04.2017;0.9162160827041679
23.04.2017;0.9162160827041679
24.04.2017;0.9162160827041679
25.04.2017;0.9162160827041679
26.04.2017;1.5423413797755967
27.04.2017;1.5423413797755967
28.04.2017;1.237650091088096
29.04.2017;0.8727146152309531
30.04.2017;0.8727146152309531
01.05.2017;0.8727146152309531
02.05.2017;0.8727146152309531
03.05.2017;0.8727146152309531
04.05.2017;0.7253239188370135
05.05.2017;0.7253239188370135
06.05.2017;0.7253239188370135
07.05.2017;0.7253239188370135
08.05.2017;0.7253239188370135
09.05.2017;0.7253239188370135
10.05.2017;0.7253239188370135
11.05.2017;0.09441425891051258
12.05.2017;0.01066167714427868
13.05.2017;0.01066167714427868
14.05.2017;0.01066167714427868
15.05.2017;0.01066167714427868
16.05.2017;0.01066167714427868
17.05.2017;0.01066167714427868
18.05.2017;0.01066167714427868
19.05.2017;0.01066167714427868
20.05.2017;0.01066167714427868
21.05.2017;0.01066167714427868
22.05.2017;0.01066167714427868
23.05.2017;0.01066167714427868
24.05.2017;0.01066167714427868
25.05.2017;0.01066167714427868
26.05.2017;0.01066167714427868
27.05.2017;0.01066167714427868
28.05.2017;0.01066167714427868
29.05.2017;0.01066167714427868
30.05.2017;0.01066167714427868
31.05.2017;0.01066167714427868
01.06.2017;0.01066167714427868
02.06.2017;0.01066167714427868
03.06.2017;0.01066167714427868
04.06.2017;0.01066167714427868
05.06.2017;0.01066167714427868
06.06.2017;0.01066167714427868
07.06.2017;0.01066167714427868
08.06.2017;0.01066167714427868
09.06.2017;0.01066167714427868
10.06.2017;0.01066167714427868
11.06.2017;0.01066167714427868
12.06.2017;0.01066167714427868
13.06.2017;0.01066167714427868
14.06.2017;0.01066167714427868
15.06.2017;0.01066167714427868
16.06.2017;0.01066167714427868
17.06.2017;0.01066167714427868
18.06.2017;0.01066167714427868
19.06.2017;0.01066167714427868
20.06.2017;0.01066167714427868
21.06.2017;0.01066167714427868
22.06.2017;0.01066167714427868
23.06.2017;0.01066167714427868
24.06.2017;0.01066167714427868
25.06.2017;0.01066167714427868
26.06.2017;0.01066167714427868
27.06.2017;0.01066167714427868
28.06.2017;0.01066167714427868
29.06.2017;0.01066167714427868
30.06.2017;0.01066167714427868
